<svg xmlns:dc="http://purl.org/dc/elements/1.1/" xmlns:cc="http://creativecommons.org/ns#" xmlns:rdf="http://www.w3.org/1999/02/22-rdf-syntax-ns#" xmlns:svg="http://www.w3.org/2000/svg" xmlns="http://www.w3.org/2000/svg" version="1.1" width="600" height="600" style=""><rect id="backgroundrect" width="100%" height="100%" x="0" y="0" fill="none" stroke="none"/>
  <defs id="defs4"/>
  <metadata id="metadata7">
    <rdf:RDF>
      <cc:Work rdf:about="">
        <dc:format>image/svg+xml</dc:format>
        <dc:type rdf:resource="http://purl.org/dc/dcmitype/StillImage"/>
        <dc:title/>
      </cc:Work>
    </rdf:RDF>
  </metadata>
  
<g class="currentLayer" style=""><title>Layer 1</title>
    <path d="m255.1130690574646,119.28531849384308 l105.5386962890625,0 l17.589778900146484,17.58979034423828 l0,105.5386962890625 z" id="path2987" style="stroke-width: 2.64317; stroke-linecap: butt; stroke-linejoin: miter; stroke-miterlimit: 4; stroke-dasharray: none;" stroke="#ffffff" stroke-opacity="1" opacity="1" fill="#026bc7" fill-opacity="1" class=""/>
    <path d="m378.2415328025818,136.8751164674759 l0,175.8978271484375 l70.35914611816406,-70.35913848876953 l0,-35.17955780029297 z" id="path2989" style="stroke-width: 2.64317; stroke-linecap: butt; stroke-linejoin: miter; stroke-miterlimit: 4; stroke-dasharray: none;" stroke="#ffffff" stroke-opacity="1" opacity="1" fill="#0398fc" fill-opacity="1" class=""/>
    <path d="m448.6006941795349,242.41382801532745 l0,105.5386962890625 l-17.58979034423828,17.589778900146484 l-105.5386962890625,0 z" id="path2991" style="stroke-width: 2.64317; stroke-linecap: butt; stroke-linejoin: miter; stroke-miterlimit: 4; stroke-dasharray: none;" stroke="#ffffff" stroke-opacity="1" opacity="1" fill="#b3defc" fill-opacity="1" class=""/>
    <path d="m255.1130690574646,365.5422612428665 l175.8978271484375,0 l-70.35913848876953,70.35913848876953 l-35.17955780029297,0 z" id="path2993" style="stroke-linecap: butt; stroke-linejoin: miter; stroke-miterlimit: 4;" stroke="#ffffff" stroke-opacity="1" opacity="1" fill="#b3defc" fill-opacity="1" class="" stroke-width="1" stroke-dasharray="none"/>
    <path d="m325.47221517562866,435.9013921022415 l-105.5386962890625,0 l-17.589778900146484,-17.589778900146484 l0,-105.5386962890625 z" id="path2995" style="stroke-width: 2.64317; stroke-linecap: butt; stroke-linejoin: miter; stroke-miterlimit: 4; stroke-dasharray: none;" stroke="#ffffff" stroke-opacity="1" opacity="1" fill="#0398fc" fill-opacity="1" class=""/>
    <path d="m202.34372091293335,418.31160938739777 l0,-175.8978271484375 l-70.35913848876953,70.35913848876953 l0,35.17955780029297 z" id="path2997" style="stroke-width: 2.64317; stroke-linecap: butt; stroke-linejoin: miter; stroke-miterlimit: 4; stroke-dasharray: none;" stroke="#ffffff" stroke-opacity="1" opacity="1" fill="#026bc7" fill-opacity="1" class=""/>
    <path d="m219.9335036277771,119.28531849384308 l35.17955780029297,0 l70.35913848876953,70.35914611816406 l-175.8978271484375,0 z" id="path2999" style="stroke-width: 2.64317; stroke-linecap: butt; stroke-linejoin: miter; stroke-miterlimit: 4; stroke-dasharray: none;" stroke="#ffffff" stroke-opacity="1" opacity="1" fill="#023396" fill-opacity="1" class=""/>
    <path d="m131.98459005355835,312.7729436159134 l0,-105.5386962890625 l17.589778900146484,-17.589778900146484 l105.5386962890625,0 z" id="path3001" style="stroke-width: 2.64317; stroke-linecap: butt; stroke-linejoin: miter; stroke-miterlimit: 4; stroke-dasharray: none;" stroke="#ffffff" stroke-opacity="1" opacity="1" fill="#023396" fill-opacity="1" class=""/>
  </g></svg>